{
    "name": "root",
    "metadata": {
        "timer_format_version": "0.1.0",
        "start_time_seconds": "1612623922",
        "python_version": "3.8.3 (default, Jul  2 2020, 17:30:36) [MSC v.1916 64 bit (AMD64)]",
        "command_line_arguments": "C:\\Users\\victo\\anaconda3\\Scripts\\mlagents-learn trainerConfig.yaml --run-id=AutoJumper_V1",
        "mlagents_version": "0.23.0",
        "mlagents_envs_version": "0.23.0",
        "communication_protocol_version": "1.3.0",
        "pytorch_version": "1.7.1+cpu",
        "numpy_version": "1.18.5",
        "end_time_seconds": "1612623928"
    },
    "total": 5.719125099999999,
    "count": 1,
    "self": 0.005396900000000038,
    "children": {
        "run_training.setup": {
            "total": 0.007576499999999875,
            "count": 1,
            "self": 0.007576499999999875
        },
        "TrainerController.start_learning": {
            "total": 5.7061516999999995,
            "count": 1,
            "self": 0.0008035999999993493,
            "children": {
                "TrainerController._reset_env": {
                    "total": 5.7051912,
                    "count": 1,
                    "self": 5.7051912
                },
                "trainer_threads": {
                    "total": 1.7000000003264404e-06,
                    "count": 1,
                    "self": 1.7000000003264404e-06
                },
                "TrainerController._save_models": {
                    "total": 0.000155200000000022,
                    "count": 1,
                    "self": 0.000155200000000022
                }
            }
        }
    }
}